%YAML 1.1
%TAG !u! tag:unity3d.com,2011:
--- !u!74 &7400000
AnimationClip:
  m_ObjectHideFlags: 0
  m_CorrespondingSourceObject: {fileID: 0}
  m_PrefabInstance: {fileID: 0}
  m_PrefabAsset: {fileID: 0}
  m_Name: tiles
  serializedVersion: 6
  m_Legacy: 0
  m_Compressed: 0
  m_UseHighQualityCurve: 1
  m_RotationCurves: []
  m_CompressedRotationCurves: []
  m_EulerCurves: []
  m_PositionCurves: []
  m_ScaleCurves: []
  m_FloatCurves: []
  m_PPtrCurves:
  - curve:
    - time: 0
      value: {fileID: 21300000, guid: 261212b977f594d5dbc48631a5c1295c, type: 3}
    - time: 0.083333336
      value: {fileID: 21300002, guid: 261212b977f594d5dbc48631a5c1295c, type: 3}
    - time: 0.16666667
      value: {fileID: 21300004, guid: 261212b977f594d5dbc48631a5c1295c, type: 3}
    - time: 0.25
      value: {fileID: 21300006, guid: 261212b977f594d5dbc48631a5c1295c, type: 3}
    - time: 0.33333334
      value: {fileID: 21300008, guid: 261212b977f594d5dbc48631a5c1295c, type: 3}
    - time: 0.41666666
      value: {fileID: 21300010, guid: 261212b977f594d5dbc48631a5c1295c, type: 3}
    - time: 0.5
      value: {fileID: 21300012, guid: 261212b977f594d5dbc48631a5c1295c, type: 3}
    - time: 0.5833333
      value: {fileID: 21300014, guid: 261212b977f594d5dbc48631a5c1295c, type: 3}
    - time: 0.6666667
      value: {fileID: 21300016, guid: 261212b977f594d5dbc48631a5c1295c, type: 3}
    - time: 0.75
      value: {fileID: 21300018, guid: 261212b977f594d5dbc48631a5c1295c, type: 3}
    - time: 0.8333333
      value: {fileID: 21300020, guid: 261212b977f594d5dbc48631a5c1295c, type: 3}
    - time: 0.9166667
      value: {fileID: 21300022, guid: 261212b977f594d5dbc48631a5c1295c, type: 3}
    - time: 1
      value: {fileID: 21300024, guid: 261212b977f594d5dbc48631a5c1295c, type: 3}
    - time: 1.0833334
      value: {fileID: 21300026, guid: 261212b977f594d5dbc48631a5c1295c, type: 3}
    - time: 1.1666666
      value: {fileID: 21300028, guid: 261212b977f594d5dbc48631a5c1295c, type: 3}
    - time: 1.25
      value: {fileID: 21300030, guid: 261212b977f594d5dbc48631a5c1295c, type: 3}
    - time: 1.3333334
      value: {fileID: 21300032, guid: 261212b977f594d5dbc48631a5c1295c, type: 3}
    - time: 1.4166666
      value: {fileID: 21300034, guid: 261212b977f594d5dbc48631a5c1295c, type: 3}
    - time: 1.5
      value: {fileID: 21300036, guid: 261212b977f594d5dbc48631a5c1295c, type: 3}
    - time: 1.5833334
      value: {fileID: 21300038, guid: 261212b977f594d5dbc48631a5c1295c, type: 3}
    - time: 1.6666666
      value: {fileID: 21300040, guid: 261212b977f594d5dbc48631a5c1295c, type: 3}
    - time: 1.75
      value: {fileID: 21300042, guid: 261212b977f594d5dbc48631a5c1295c, type: 3}
    - time: 1.8333334
      value: {fileID: 21300044, guid: 261212b977f594d5dbc48631a5c1295c, type: 3}
    - time: 1.9166666
      value: {fileID: 21300046, guid: 261212b977f594d5dbc48631a5c1295c, type: 3}
    - time: 2
      value: {fileID: 21300048, guid: 261212b977f594d5dbc48631a5c1295c, type: 3}
    - time: 2.0833333
      value: {fileID: 21300050, guid: 261212b977f594d5dbc48631a5c1295c, type: 3}
    - time: 2.1666667
      value: {fileID: 21300052, guid: 261212b977f594d5dbc48631a5c1295c, type: 3}
    - time: 2.25
      value: {fileID: 21300054, guid: 261212b977f594d5dbc48631a5c1295c, type: 3}
    - time: 2.3333333
      value: {fileID: 21300056, guid: 261212b977f594d5dbc48631a5c1295c, type: 3}
    - time: 2.4166667
      value: {fileID: 21300058, guid: 261212b977f594d5dbc48631a5c1295c, type: 3}
    - time: 2.5
      value: {fileID: 21300060, guid: 261212b977f594d5dbc48631a5c1295c, type: 3}
    - time: 2.5833333
      value: {fileID: 21300062, guid: 261212b977f594d5dbc48631a5c1295c, type: 3}
    - time: 2.6666667
      value: {fileID: 21300064, guid: 261212b977f594d5dbc48631a5c1295c, type: 3}
    - time: 2.75
      value: {fileID: 21300066, guid: 261212b977f594d5dbc48631a5c1295c, type: 3}
    - time: 2.8333333
      value: {fileID: 21300068, guid: 261212b977f594d5dbc48631a5c1295c, type: 3}
    - time: 2.9166667
      value: {fileID: 21300070, guid: 261212b977f594d5dbc48631a5c1295c, type: 3}
    - time: 3
      value: {fileID: 21300072, guid: 261212b977f594d5dbc48631a5c1295c, type: 3}
    - time: 3.0833333
      value: {fileID: 21300074, guid: 261212b977f594d5dbc48631a5c1295c, type: 3}
    - time: 3.1666667
      value: {fileID: 21300076, guid: 261212b977f594d5dbc48631a5c1295c, type: 3}
    - time: 3.25
      value: {fileID: 21300078, guid: 261212b977f594d5dbc48631a5c1295c, type: 3}
    - time: 3.3333333
      value: {fileID: 21300080, guid: 261212b977f594d5dbc48631a5c1295c, type: 3}
    - time: 3.4166667
      value: {fileID: 21300082, guid: 261212b977f594d5dbc48631a5c1295c, type: 3}
    - time: 3.5
      value: {fileID: 21300084, guid: 261212b977f594d5dbc48631a5c1295c, type: 3}
    - time: 3.5833333
      value: {fileID: 21300086, guid: 261212b977f594d5dbc48631a5c1295c, type: 3}
    - time: 3.6666667
      value: {fileID: 21300088, guid: 261212b977f594d5dbc48631a5c1295c, type: 3}
    - time: 3.75
      value: {fileID: 21300090, guid: 261212b977f594d5dbc48631a5c1295c, type: 3}
    - time: 3.8333333
      value: {fileID: 21300092, guid: 261212b977f594d5dbc48631a5c1295c, type: 3}
    - time: 3.9166667
      value: {fileID: 21300094, guid: 261212b977f594d5dbc48631a5c1295c, type: 3}
    - time: 4
      value: {fileID: 21300096, guid: 261212b977f594d5dbc48631a5c1295c, type: 3}
    - time: 4.0833335
      value: {fileID: 21300098, guid: 261212b977f594d5dbc48631a5c1295c, type: 3}
    - time: 4.1666665
      value: {fileID: 21300100, guid: 261212b977f594d5dbc48631a5c1295c, type: 3}
    - time: 4.25
      value: {fileID: 21300102, guid: 261212b977f594d5dbc48631a5c1295c, type: 3}
    - time: 4.3333335
      value: {fileID: 21300104, guid: 261212b977f594d5dbc48631a5c1295c, type: 3}
    - time: 4.4166665
      value: {fileID: 21300106, guid: 261212b977f594d5dbc48631a5c1295c, type: 3}
    - time: 4.5
      value: {fileID: 21300108, guid: 261212b977f594d5dbc48631a5c1295c, type: 3}
    - time: 4.5833335
      value: {fileID: 21300110, guid: 261212b977f594d5dbc48631a5c1295c, type: 3}
    - time: 4.6666665
      value: {fileID: 21300112, guid: 261212b977f594d5dbc48631a5c1295c, type: 3}
    - time: 4.75
      value: {fileID: 21300114, guid: 261212b977f594d5dbc48631a5c1295c, type: 3}
    - time: 4.8333335
      value: {fileID: 21300116, guid: 261212b977f594d5dbc48631a5c1295c, type: 3}
    - time: 4.9166665
      value: {fileID: 21300118, guid: 261212b977f594d5dbc48631a5c1295c, type: 3}
    - time: 5
      value: {fileID: 21300120, guid: 261212b977f594d5dbc48631a5c1295c, type: 3}
    - time: 5.0833335
      value: {fileID: 21300122, guid: 261212b977f594d5dbc48631a5c1295c, type: 3}
    - time: 5.1666665
      value: {fileID: 21300124, guid: 261212b977f594d5dbc48631a5c1295c, type: 3}
    - time: 5.25
      value: {fileID: 21300126, guid: 261212b977f594d5dbc48631a5c1295c, type: 3}
    - time: 5.3333335
      value: {fileID: 21300128, guid: 261212b977f594d5dbc48631a5c1295c, type: 3}
    - time: 5.4166665
      value: {fileID: 21300130, guid: 261212b977f594d5dbc48631a5c1295c, type: 3}
    - time: 5.5
      value: {fileID: 21300132, guid: 261212b977f594d5dbc48631a5c1295c, type: 3}
    - time: 5.5833335
      value: {fileID: 21300134, guid: 261212b977f594d5dbc48631a5c1295c, type: 3}
    - time: 5.6666665
      value: {fileID: 21300136, guid: 261212b977f594d5dbc48631a5c1295c, type: 3}
    - time: 5.75
      value: {fileID: 21300138, guid: 261212b977f594d5dbc48631a5c1295c, type: 3}
    - time: 5.8333335
      value: {fileID: 21300140, guid: 261212b977f594d5dbc48631a5c1295c, type: 3}
    - time: 5.9166665
      value: {fileID: 21300142, guid: 261212b977f594d5dbc48631a5c1295c, type: 3}
    - time: 6
      value: {fileID: 21300144, guid: 261212b977f594d5dbc48631a5c1295c, type: 3}
    - time: 6.0833335
      value: {fileID: 21300146, guid: 261212b977f594d5dbc48631a5c1295c, type: 3}
    - time: 6.1666665
      value: {fileID: 21300148, guid: 261212b977f594d5dbc48631a5c1295c, type: 3}
    - time: 6.25
      value: {fileID: 21300150, guid: 261212b977f594d5dbc48631a5c1295c, type: 3}
    - time: 6.3333335
      value: {fileID: 21300152, guid: 261212b977f594d5dbc48631a5c1295c, type: 3}
    - time: 6.4166665
      value: {fileID: 21300154, guid: 261212b977f594d5dbc48631a5c1295c, type: 3}
    - time: 6.5
      value: {fileID: 21300156, guid: 261212b977f594d5dbc48631a5c1295c, type: 3}
    - time: 6.5833335
      value: {fileID: 21300158, guid: 261212b977f594d5dbc48631a5c1295c, type: 3}
    - time: 6.6666665
      value: {fileID: 21300160, guid: 261212b977f594d5dbc48631a5c1295c, type: 3}
    - time: 6.75
      value: {fileID: 21300162, guid: 261212b977f594d5dbc48631a5c1295c, type: 3}
    - time: 6.8333335
      value: {fileID: 21300164, guid: 261212b977f594d5dbc48631a5c1295c, type: 3}
    - time: 6.9166665
      value: {fileID: 21300166, guid: 261212b977f594d5dbc48631a5c1295c, type: 3}
    - time: 7
      value: {fileID: 21300168, guid: 261212b977f594d5dbc48631a5c1295c, type: 3}
    - time: 7.0833335
      value: {fileID: 21300170, guid: 261212b977f594d5dbc48631a5c1295c, type: 3}
    - time: 7.1666665
      value: {fileID: 21300172, guid: 261212b977f594d5dbc48631a5c1295c, type: 3}
    - time: 7.25
      value: {fileID: 21300174, guid: 261212b977f594d5dbc48631a5c1295c, type: 3}
    - time: 7.3333335
      value: {fileID: 21300176, guid: 261212b977f594d5dbc48631a5c1295c, type: 3}
    - time: 7.4166665
      value: {fileID: 21300178, guid: 261212b977f594d5dbc48631a5c1295c, type: 3}
    - time: 7.5
      value: {fileID: 21300180, guid: 261212b977f594d5dbc48631a5c1295c, type: 3}
    - time: 7.5833335
      value: {fileID: 21300182, guid: 261212b977f594d5dbc48631a5c1295c, type: 3}
    - time: 7.6666665
      value: {fileID: 21300184, guid: 261212b977f594d5dbc48631a5c1295c, type: 3}
    - time: 7.75
      value: {fileID: 21300186, guid: 261212b977f594d5dbc48631a5c1295c, type: 3}
    - time: 7.8333335
      value: {fileID: 21300188, guid: 261212b977f594d5dbc48631a5c1295c, type: 3}
    - time: 7.9166665
      value: {fileID: 21300190, guid: 261212b977f594d5dbc48631a5c1295c, type: 3}
    - time: 8
      value: {fileID: 21300192, guid: 261212b977f594d5dbc48631a5c1295c, type: 3}
    - time: 8.083333
      value: {fileID: 21300194, guid: 261212b977f594d5dbc48631a5c1295c, type: 3}
    - time: 8.166667
      value: {fileID: 21300196, guid: 261212b977f594d5dbc48631a5c1295c, type: 3}
    - time: 8.25
      value: {fileID: 21300198, guid: 261212b977f594d5dbc48631a5c1295c, type: 3}
    - time: 8.333333
      value: {fileID: 21300200, guid: 261212b977f594d5dbc48631a5c1295c, type: 3}
    - time: 8.416667
      value: {fileID: 21300202, guid: 261212b977f594d5dbc48631a5c1295c, type: 3}
    - time: 8.5
      value: {fileID: 21300204, guid: 261212b977f594d5dbc48631a5c1295c, type: 3}
    - time: 8.583333
      value: {fileID: 21300206, guid: 261212b977f594d5dbc48631a5c1295c, type: 3}
    - time: 8.666667
      value: {fileID: 21300208, guid: 261212b977f594d5dbc48631a5c1295c, type: 3}
    - time: 8.75
      value: {fileID: 21300210, guid: 261212b977f594d5dbc48631a5c1295c, type: 3}
    - time: 8.833333
      value: {fileID: 21300212, guid: 261212b977f594d5dbc48631a5c1295c, type: 3}
    - time: 8.916667
      value: {fileID: 21300214, guid: 261212b977f594d5dbc48631a5c1295c, type: 3}
    - time: 9
      value: {fileID: 21300216, guid: 261212b977f594d5dbc48631a5c1295c, type: 3}
    - time: 9.083333
      value: {fileID: 21300218, guid: 261212b977f594d5dbc48631a5c1295c, type: 3}
    - time: 9.166667
      value: {fileID: 21300220, guid: 261212b977f594d5dbc48631a5c1295c, type: 3}
    - time: 9.25
      value: {fileID: 21300222, guid: 261212b977f594d5dbc48631a5c1295c, type: 3}
    - time: 9.333333
      value: {fileID: 21300224, guid: 261212b977f594d5dbc48631a5c1295c, type: 3}
    - time: 9.416667
      value: {fileID: 21300226, guid: 261212b977f594d5dbc48631a5c1295c, type: 3}
    - time: 9.5
      value: {fileID: 21300228, guid: 261212b977f594d5dbc48631a5c1295c, type: 3}
    - time: 9.583333
      value: {fileID: 21300230, guid: 261212b977f594d5dbc48631a5c1295c, type: 3}
    - time: 9.666667
      value: {fileID: 21300232, guid: 261212b977f594d5dbc48631a5c1295c, type: 3}
    - time: 9.75
      value: {fileID: 21300234, guid: 261212b977f594d5dbc48631a5c1295c, type: 3}
    - time: 9.833333
      value: {fileID: 21300236, guid: 261212b977f594d5dbc48631a5c1295c, type: 3}
    - time: 9.916667
      value: {fileID: 21300238, guid: 261212b977f594d5dbc48631a5c1295c, type: 3}
    - time: 10
      value: {fileID: 21300240, guid: 261212b977f594d5dbc48631a5c1295c, type: 3}
    - time: 10.083333
      value: {fileID: 21300242, guid: 261212b977f594d5dbc48631a5c1295c, type: 3}
    - time: 10.166667
      value: {fileID: 21300244, guid: 261212b977f594d5dbc48631a5c1295c, type: 3}
    - time: 10.25
      value: {fileID: 21300246, guid: 261212b977f594d5dbc48631a5c1295c, type: 3}
    - time: 10.333333
      value: {fileID: 21300248, guid: 261212b977f594d5dbc48631a5c1295c, type: 3}
    - time: 10.416667
      value: {fileID: 21300250, guid: 261212b977f594d5dbc48631a5c1295c, type: 3}
    - time: 10.5
      value: {fileID: 21300252, guid: 261212b977f594d5dbc48631a5c1295c, type: 3}
    - time: 10.583333
      value: {fileID: 21300254, guid: 261212b977f594d5dbc48631a5c1295c, type: 3}
    attribute: m_Sprite
    path: 
    classID: 212
    script: {fileID: 0}
  m_SampleRate: 12
  m_WrapMode: 0
  m_Bounds:
    m_Center: {x: 0, y: 0, z: 0}
    m_Extent: {x: 0, y: 0, z: 0}
  m_ClipBindingConstant:
    genericBindings:
    - serializedVersion: 2
      path: 0
      attribute: 0
      script: {fileID: 0}
      typeID: 212
      customType: 23
      isPPtrCurve: 1
    pptrCurveMapping:
    - {fileID: 21300000, guid: 261212b977f594d5dbc48631a5c1295c, type: 3}
    - {fileID: 21300002, guid: 261212b977f594d5dbc48631a5c1295c, type: 3}
    - {fileID: 21300004, guid: 261212b977f594d5dbc48631a5c1295c, type: 3}
    - {fileID: 21300006, guid: 261212b977f594d5dbc48631a5c1295c, type: 3}
    - {fileID: 21300008, guid: 261212b977f594d5dbc48631a5c1295c, type: 3}
    - {fileID: 21300010, guid: 261212b977f594d5dbc48631a5c1295c, type: 3}
    - {fileID: 21300012, guid: 261212b977f594d5dbc48631a5c1295c, type: 3}
    - {fileID: 21300014, guid: 261212b977f594d5dbc48631a5c1295c, type: 3}
    - {fileID: 21300016, guid: 261212b977f594d5dbc48631a5c1295c, type: 3}
    - {fileID: 21300018, guid: 261212b977f594d5dbc48631a5c1295c, type: 3}
    - {fileID: 21300020, guid: 261212b977f594d5dbc48631a5c1295c, type: 3}
    - {fileID: 21300022, guid: 261212b977f594d5dbc48631a5c1295c, type: 3}
    - {fileID: 21300024, guid: 261212b977f594d5dbc48631a5c1295c, type: 3}
    - {fileID: 21300026, guid: 261212b977f594d5dbc48631a5c1295c, type: 3}
    - {fileID: 21300028, guid: 261212b977f594d5dbc48631a5c1295c, type: 3}
    - {fileID: 21300030, guid: 261212b977f594d5dbc48631a5c1295c, type: 3}
    - {fileID: 21300032, guid: 261212b977f594d5dbc48631a5c1295c, type: 3}
    - {fileID: 21300034, guid: 261212b977f594d5dbc48631a5c1295c, type: 3}
    - {fileID: 21300036, guid: 261212b977f594d5dbc48631a5c1295c, type: 3}
    - {fileID: 21300038, guid: 261212b977f594d5dbc48631a5c1295c, type: 3}
    - {fileID: 21300040, guid: 261212b977f594d5dbc48631a5c1295c, type: 3}
    - {fileID: 21300042, guid: 261212b977f594d5dbc48631a5c1295c, type: 3}
    - {fileID: 21300044, guid: 261212b977f594d5dbc48631a5c1295c, type: 3}
    - {fileID: 21300046, guid: 261212b977f594d5dbc48631a5c1295c, type: 3}
    - {fileID: 21300048, guid: 261212b977f594d5dbc48631a5c1295c, type: 3}
    - {fileID: 21300050, guid: 261212b977f594d5dbc48631a5c1295c, type: 3}
    - {fileID: 21300052, guid: 261212b977f594d5dbc48631a5c1295c, type: 3}
    - {fileID: 21300054, guid: 261212b977f594d5dbc48631a5c1295c, type: 3}
    - {fileID: 21300056, guid: 261212b977f594d5dbc48631a5c1295c, type: 3}
    - {fileID: 21300058, guid: 261212b977f594d5dbc48631a5c1295c, type: 3}
    - {fileID: 21300060, guid: 261212b977f594d5dbc48631a5c1295c, type: 3}
    - {fileID: 21300062, guid: 261212b977f594d5dbc48631a5c1295c, type: 3}
    - {fileID: 21300064, guid: 261212b977f594d5dbc48631a5c1295c, type: 3}
    - {fileID: 21300066, guid: 261212b977f594d5dbc48631a5c1295c, type: 3}
    - {fileID: 21300068, guid: 261212b977f594d5dbc48631a5c1295c, type: 3}
    - {fileID: 21300070, guid: 261212b977f594d5dbc48631a5c1295c, type: 3}
    - {fileID: 21300072, guid: 261212b977f594d5dbc48631a5c1295c, type: 3}
    - {fileID: 21300074, guid: 261212b977f594d5dbc48631a5c1295c, type: 3}
    - {fileID: 21300076, guid: 261212b977f594d5dbc48631a5c1295c, type: 3}
    - {fileID: 21300078, guid: 261212b977f594d5dbc48631a5c1295c, type: 3}
    - {fileID: 21300080, guid: 261212b977f594d5dbc48631a5c1295c, type: 3}
    - {fileID: 21300082, guid: 261212b977f594d5dbc48631a5c1295c, type: 3}
    - {fileID: 21300084, guid: 261212b977f594d5dbc48631a5c1295c, type: 3}
    - {fileID: 21300086, guid: 261212b977f594d5dbc48631a5c1295c, type: 3}
    - {fileID: 21300088, guid: 261212b977f594d5dbc48631a5c1295c, type: 3}
    - {fileID: 21300090, guid: 261212b977f594d5dbc48631a5c1295c, type: 3}
    - {fileID: 21300092, guid: 261212b977f594d5dbc48631a5c1295c, type: 3}
    - {fileID: 21300094, guid: 261212b977f594d5dbc48631a5c1295c, type: 3}
    - {fileID: 21300096, guid: 261212b977f594d5dbc48631a5c1295c, type: 3}
    - {fileID: 21300098, guid: 261212b977f594d5dbc48631a5c1295c, type: 3}
    - {fileID: 21300100, guid: 261212b977f594d5dbc48631a5c1295c, type: 3}
    - {fileID: 21300102, guid: 261212b977f594d5dbc48631a5c1295c, type: 3}
    - {fileID: 21300104, guid: 261212b977f594d5dbc48631a5c1295c, type: 3}
    - {fileID: 21300106, guid: 261212b977f594d5dbc48631a5c1295c, type: 3}
    - {fileID: 21300108, guid: 261212b977f594d5dbc48631a5c1295c, type: 3}
    - {fileID: 21300110, guid: 261212b977f594d5dbc48631a5c1295c, type: 3}
    - {fileID: 21300112, guid: 261212b977f594d5dbc48631a5c1295c, type: 3}
    - {fileID: 21300114, guid: 261212b977f594d5dbc48631a5c1295c, type: 3}
    - {fileID: 21300116, guid: 261212b977f594d5dbc48631a5c1295c, type: 3}
    - {fileID: 21300118, guid: 261212b977f594d5dbc48631a5c1295c, type: 3}
    - {fileID: 21300120, guid: 261212b977f594d5dbc48631a5c1295c, type: 3}
    - {fileID: 21300122, guid: 261212b977f594d5dbc48631a5c1295c, type: 3}
    - {fileID: 21300124, guid: 261212b977f594d5dbc48631a5c1295c, type: 3}
    - {fileID: 21300126, guid: 261212b977f594d5dbc48631a5c1295c, type: 3}
    - {fileID: 21300128, guid: 261212b977f594d5dbc48631a5c1295c, type: 3}
    - {fileID: 21300130, guid: 261212b977f594d5dbc48631a5c1295c, type: 3}
    - {fileID: 21300132, guid: 261212b977f594d5dbc48631a5c1295c, type: 3}
    - {fileID: 21300134, guid: 261212b977f594d5dbc48631a5c1295c, type: 3}
    - {fileID: 21300136, guid: 261212b977f594d5dbc48631a5c1295c, type: 3}
    - {fileID: 21300138, guid: 261212b977f594d5dbc48631a5c1295c, type: 3}
    - {fileID: 21300140, guid: 261212b977f594d5dbc48631a5c1295c, type: 3}
    - {fileID: 21300142, guid: 261212b977f594d5dbc48631a5c1295c, type: 3}
    - {fileID: 21300144, guid: 261212b977f594d5dbc48631a5c1295c, type: 3}
    - {fileID: 21300146, guid: 261212b977f594d5dbc48631a5c1295c, type: 3}
    - {fileID: 21300148, guid: 261212b977f594d5dbc48631a5c1295c, type: 3}
    - {fileID: 21300150, guid: 261212b977f594d5dbc48631a5c1295c, type: 3}
    - {fileID: 21300152, guid: 261212b977f594d5dbc48631a5c1295c, type: 3}
    - {fileID: 21300154, guid: 261212b977f594d5dbc48631a5c1295c, type: 3}
    - {fileID: 21300156, guid: 261212b977f594d5dbc48631a5c1295c, type: 3}
    - {fileID: 21300158, guid: 261212b977f594d5dbc48631a5c1295c, type: 3}
    - {fileID: 21300160, guid: 261212b977f594d5dbc48631a5c1295c, type: 3}
    - {fileID: 21300162, guid: 261212b977f594d5dbc48631a5c1295c, type: 3}
    - {fileID: 21300164, guid: 261212b977f594d5dbc48631a5c1295c, type: 3}
    - {fileID: 21300166, guid: 261212b977f594d5dbc48631a5c1295c, type: 3}
    - {fileID: 21300168, guid: 261212b977f594d5dbc48631a5c1295c, type: 3}
    - {fileID: 21300170, guid: 261212b977f594d5dbc48631a5c1295c, type: 3}
    - {fileID: 21300172, guid: 261212b977f594d5dbc48631a5c1295c, type: 3}
    - {fileID: 21300174, guid: 261212b977f594d5dbc48631a5c1295c, type: 3}
    - {fileID: 21300176, guid: 261212b977f594d5dbc48631a5c1295c, type: 3}
    - {fileID: 21300178, guid: 261212b977f594d5dbc48631a5c1295c, type: 3}
    - {fileID: 21300180, guid: 261212b977f594d5dbc48631a5c1295c, type: 3}
    - {fileID: 21300182, guid: 261212b977f594d5dbc48631a5c1295c, type: 3}
    - {fileID: 21300184, guid: 261212b977f594d5dbc48631a5c1295c, type: 3}
    - {fileID: 21300186, guid: 261212b977f594d5dbc48631a5c1295c, type: 3}
    - {fileID: 21300188, guid: 261212b977f594d5dbc48631a5c1295c, type: 3}
    - {fileID: 21300190, guid: 261212b977f594d5dbc48631a5c1295c, type: 3}
    - {fileID: 21300192, guid: 261212b977f594d5dbc48631a5c1295c, type: 3}
    - {fileID: 21300194, guid: 261212b977f594d5dbc48631a5c1295c, type: 3}
    - {fileID: 21300196, guid: 261212b977f594d5dbc48631a5c1295c, type: 3}
    - {fileID: 21300198, guid: 261212b977f594d5dbc48631a5c1295c, type: 3}
    - {fileID: 21300200, guid: 261212b977f594d5dbc48631a5c1295c, type: 3}
    - {fileID: 21300202, guid: 261212b977f594d5dbc48631a5c1295c, type: 3}
    - {fileID: 21300204, guid: 261212b977f594d5dbc48631a5c1295c, type: 3}
    - {fileID: 21300206, guid: 261212b977f594d5dbc48631a5c1295c, type: 3}
    - {fileID: 21300208, guid: 261212b977f594d5dbc48631a5c1295c, type: 3}
    - {fileID: 21300210, guid: 261212b977f594d5dbc48631a5c1295c, type: 3}
    - {fileID: 21300212, guid: 261212b977f594d5dbc48631a5c1295c, type: 3}
    - {fileID: 21300214, guid: 261212b977f594d5dbc48631a5c1295c, type: 3}
    - {fileID: 21300216, guid: 261212b977f594d5dbc48631a5c1295c, type: 3}
    - {fileID: 21300218, guid: 261212b977f594d5dbc48631a5c1295c, type: 3}
    - {fileID: 21300220, guid: 261212b977f594d5dbc48631a5c1295c, type: 3}
    - {fileID: 21300222, guid: 261212b977f594d5dbc48631a5c1295c, type: 3}
    - {fileID: 21300224, guid: 261212b977f594d5dbc48631a5c1295c, type: 3}
    - {fileID: 21300226, guid: 261212b977f594d5dbc48631a5c1295c, type: 3}
    - {fileID: 21300228, guid: 261212b977f594d5dbc48631a5c1295c, type: 3}
    - {fileID: 21300230, guid: 261212b977f594d5dbc48631a5c1295c, type: 3}
    - {fileID: 21300232, guid: 261212b977f594d5dbc48631a5c1295c, type: 3}
    - {fileID: 21300234, guid: 261212b977f594d5dbc48631a5c1295c, type: 3}
    - {fileID: 21300236, guid: 261212b977f594d5dbc48631a5c1295c, type: 3}
    - {fileID: 21300238, guid: 261212b977f594d5dbc48631a5c1295c, type: 3}
    - {fileID: 21300240, guid: 261212b977f594d5dbc48631a5c1295c, type: 3}
    - {fileID: 21300242, guid: 261212b977f594d5dbc48631a5c1295c, type: 3}
    - {fileID: 21300244, guid: 261212b977f594d5dbc48631a5c1295c, type: 3}
    - {fileID: 21300246, guid: 261212b977f594d5dbc48631a5c1295c, type: 3}
    - {fileID: 21300248, guid: 261212b977f594d5dbc48631a5c1295c, type: 3}
    - {fileID: 21300250, guid: 261212b977f594d5dbc48631a5c1295c, type: 3}
    - {fileID: 21300252, guid: 261212b977f594d5dbc48631a5c1295c, type: 3}
    - {fileID: 21300254, guid: 261212b977f594d5dbc48631a5c1295c, type: 3}
  m_AnimationClipSettings:
    serializedVersion: 2
    m_AdditiveReferencePoseClip: {fileID: 0}
    m_AdditiveReferencePoseTime: 0
    m_StartTime: 0
    m_StopTime: 10.666666
    m_OrientationOffsetY: 0
    m_Level: 0
    m_CycleOffset: 0
    m_HasAdditiveReferencePose: 0
    m_LoopTime: 1
    m_LoopBlend: 0
    m_LoopBlendOrientation: 0
    m_LoopBlendPositionY: 0
    m_LoopBlendPositionXZ: 0
    m_KeepOriginalOrientation: 0
    m_KeepOriginalPositionY: 1
    m_KeepOriginalPositionXZ: 0
    m_HeightFromFeet: 0
    m_Mirror: 0
  m_EditorCurves: []
  m_EulerEditorCurves: []
  m_HasGenericRootTransform: 0
  m_HasMotionFloatCurves: 0
  m_Events: []
